n04074963 remote control, remote
n02883205 bow tie, bow-tie, bowtie
n04355933 sunglass
n02669723 academic gown, academic robe, judge's robe
n02916936 bulletproof vest
n02104365 schipperke
n02110958 pug, pug-dog
n03782006 monitor
n06596364 comic book
n02091467 Norwegian elkhound, elkhound
n03207941 dishwasher, dish washer, dishwashing machine
n15075141 toilet tissue, toilet paper, bathroom tissue
n04376876 syringe
n02892767 brassiere, bra, bandeau
n02951585 can opener, tin opener
n02106662 German shepherd, German shepherd dog, German police dog, alsatian
n03666591 lighter, light, igniter, ignitor
n03970156 plunger, plumber's helper
n02441942 weasel
n02965783 car mirror
n02085620 Chihuahua
n03692522 loupe, jeweler's loupe
n03759954 microphone, mike
n02123597 Siamese cat, Siamese
n03483316 hand blower, blow dryer, blow drier, hair dryer, hair drier
n03476684 hair slide
n03787032 mortarboard
n03291819 envelope
n07892512 red wine
n03476991 hair spray
n02840245 binder, ring-binder
n04579432 whistle
n02978881 cassette
n02111129 Leonberg
n02096585 Boston bull, Boston terrier
n02704792 amphibian, amphibious vehicle
n01873310 platypus, duckbill, duckbilled platypus, duck-billed platypus, Ornithorhynchus anatinus
n03196217 digital clock
n02105162 malinois
n03404251 fur coat
n02108915 French bulldog
n02869837 bonnet, poke bonnet
n02112350 keeshond
n03478589 half track
n04325704 stole
n03887697 paper towel
n04356056 sunglasses, dark glasses, shades
n02105056 groenendael
n03529860 home theater, home theatre
n01910747 jellyfish
n03871628 packet
n03729826 matchstick
n03803284 muzzle
n03642806 laptop, laptop computer
n02777292 balance beam, beam
n06359193 web site, website, internet site, site
n03680355 Loafer
n03041632 cleaver, meat cleaver, chopper
n02102480 Sussex spaniel
n01704323 triceratops
n04584207 wig
n03124170 cowboy hat, ten-gallon hat
n02786058 Band Aid
n02667093 abaya
n02123045 tabby, tabby cat
n04591157 Windsor tie
n07248320 book jacket, dust cover, dust jacket, dust wrapper
n01491361 tiger shark, Galeocerdo cuvieri
n03794056 mousetrap
n03868863 oxygen mask
n09229709 bubble
n03676483 lipstick, lip rouge
n02112706 Brabancon griffon
n04070727 refrigerator, icebox
n03916031 perfume, essence
n03180011 desktop computer
n04209133 shower cap
n02808440 bathtub, bathing tub, bath, tub
n04493381 tub, vat
n04152593 screen, CRT screen
n03623198 knee pad
n04404412 television, television system
n02089078 black-and-tan coonhound
n02443484 black-footed ferret, ferret, Mustela nigripes
