n03535780 horizontal bar, high bar
n03770439 miniskirt, mini
n04228054 ski
n04371774 swing
n01855672 goose
n02006656 spoonbill
n03888257 parachute, chute
n02799071 baseball
n02099267 flat-coated retriever
n02113186 Cardigan, Cardigan Welsh corgi
n09835506 ballplayer, baseball player
n04409515 tennis ball
n04254680 soccer ball
n02106662 German shepherd, German shepherd dog, German police dog, alsatian
n03866082 overskirt
n04482393 tricycle, trike, velocipede
n03649909 lawn mower, mower
n01498041 stingray
n02099712 Labrador retriever
n04019541 puck, hockey puck
n04118538 rugby ball
n02007558 flamingo
n02113799 standard poodle
n02892767 brassiere, bra, bandeau
n04208210 shovel
n01494475 hammerhead, hammerhead shark
n02051845 pelican
n04039381 racket, racquet
n02951358 canoe
n03944341 pinwheel
n04371430 swimming trunks, bathing trunks
n04229816 ski mask
n04507155 umbrella
n03445924 golfcart, golf cart
n01795545 black grouse
n03534580 hoopskirt, crinoline
n02037110 oystercatcher, oyster catcher
n03792782 mountain bike, all-terrain bike, off-roader
n02879718 bow
n02807133 bathing cap, swimming cap
n02071294 killer whale, killer, orca, grampus, sea wolf, Orcinus orca
n04509417 unicycle, monocycle
n03379051 football helmet
n01582220 magpie
n02002556 white stork, Ciconia ciconia
n02107312 miniature pinscher
n02802426 basketball
n02091831 Saluki, gazelle hound
n03141823 crutch
n02002724 black stork, Ciconia nigra
n02104365 schipperke
n03791053 motor scooter, scooter
n03710637 maillot
n04540053 volleyball
n04192698 shield, buckler
n01847000 drake
n04270147 spatula
n02099429 curly-coated retriever
n03623198 knee pad
n03873416 paddle, boat paddle
n01860187 black swan, Cygnus atratus
n03733131 maypole
