n03250847 drumstick
n04550184 wardrobe, closet, press
n03452741 grand piano, grand
n03982430 pool table, billiard table, snooker table
n03535780 horizontal bar, high bar
n03857828 oscilloscope, scope, cathode-ray oscilloscope, CRO
n02951358 canoe
n03483316 hand blower, blow dryer, blow drier, hair dryer, hair drier
n03924679 photocopier
n04179913 sewing machine
n03888605 parallel bars, bars
n03131574 crib, cot
n04009552 projector
n04099969 rocking chair, rocker
n04336792 stretcher
n03201208 dining table, board
n04090263 rifle
n03637318 lampshade, lamp shade
n03793489 mouse, computer mouse
n02231487 walking stick, walkingstick, stick insect
n02879718 bow
n04380533 table lamp
n02777292 balance beam, beam
n04509417 unicycle, monocycle
n04590129 window shade
n03179701 desk
n04344873 studio couch, day bed
n03794056 mousetrap
n04201297 shoji
n02233338 cockroach, roach
n07753592 banana
