n07920052 espresso
n07932039 eggnog
n04591713 wine bottle
n07860988 dough
n04418357 theater curtain, theatre curtain
n03250847 drumstick
n02930766 cab, hack, taxi, taxicab
n04367480 swab, swob, mop
n03447721 gong, tam-tam
n03325584 feather boa, boa
n03837869 obelisk
n03297495 espresso maker
n03388043 fountain
n04482393 tricycle, trike, velocipede
n02823750 beer glass
n02825657 bell cote, bell cot
n03666591 lighter, light, igniter, ignitor
n03721384 marimba, xylophone
n07892512 red wine
n03063599 coffee mug
n04179913 sewing machine
n04131690 saltshaker, salt shaker
n03930313 picket fence, paling
n04008634 projectile, missile
n04485082 tripod
n07613480 trifle
n03944341 pinwheel
n04116512 rubber eraser, rubber, pencil eraser
n04266014 space shuttle
n03637318 lampshade, lamp shade
n03445924 golfcart, golf cart
n03995372 power drill
n02791124 barber chair
n03249569 drum, membranophone, tympan
n07716906 spaghetti squash
n03908714 pencil sharpener
n04286575 spotlight, spot
n04509417 unicycle, monocycle
n03452741 grand piano, grand
n03775546 mixing bowl
n04562935 water tower
n03443371 goblet
n04584207 wig
n03109150 corkscrew, bottle screw
n03124170 cowboy hat, ten-gallon hat
n04380533 table lamp
n04456115 torch
n06874185 traffic light, traffic signal, stoplight
n02939185 caldron, cauldron
n04146614 school bus
n03782006 monitor
n04023962 punching bag, punch bag, punching ball, punchball
n04154565 screwdriver
n04505470 typewriter keyboard
n03773504 missile
n03063689 coffeepot
n02814860 beacon, lighthouse, beacon light, pharos
n04542943 waffle iron
n03729826 matchstick
n07753592 banana
