n04355933 sunglass
n02669723 academic gown, academic robe, judge's robe
n04501370 turnstile
n04023962 punching bag, punch bag, punching ball, punchball
n02966193 carousel, carrousel, merry-go-round, roundabout, whirligig
n03814639 neck brace
n03970156 plunger, plumber's helper
n03535780 horizontal bar, high bar
n03902125 pay-phone, pay-station
n03787032 mortarboard
n04229816 ski mask
n04311174 steel drum
n03476991 hair spray
n03888605 parallel bars, bars
n03891332 parking meter
n03942813 ping-pong ball
n03255030 dumbbell
n04356056 sunglasses, dark glasses, shades
n03976657 pole
n07615774 ice lolly, lolly, lollipop, popsicle
n04584207 wig
n04456115 torch
n09229709 bubble
n09835506 ballplayer, baseball player
n03710637 maillot
n04540053 volleyball
n02807133 bathing cap, swimming cap
n02790996 barbell
