n02883205 bow tie, bow-tie, bowtie
n03461385 grocery store, grocery, food market, market
n03255030 dumbbell
n07892512 red wine
n04356056 sunglasses, dark glasses, shades
n04507155 umbrella
n04065272 recreational vehicle, RV, R.V.
n04596742 wok
n03207941 dishwasher, dish washer, dishwashing machine
n02966193 carousel, carrousel, merry-go-round, roundabout, whirligig
n04259630 sombrero
n04487394 trombone
n03814639 neck brace
n03763968 military uniform
n03445924 golfcart, golf cart
n04023962 punching bag, punch bag, punching ball, punchball
n03535780 horizontal bar, high bar
n04462240 toyshop
n04081281 restaurant, eating house, eating place, eatery
n04131690 saltshaker, salt shaker
n03924679 photocopier
n04229816 ski mask
n04311174 steel drum
n04239074 sliding door
n03888605 parallel bars, bars
n02977058 cash machine, cash dispenser, automated teller machine, automatic teller machine, automated teller, automatic teller, ATM
n03127747 crash helmet
n03761084 microwave, microwave oven
n04200800 shoe shop, shoe-shop, shoe store
n04336792 stretcher
n02869837 bonnet, poke bonnet
n04070727 refrigerator, icebox
n07697537 hotdog, hot dog, red hot
n03887697 paper towel
n03995372 power drill
n02791270 barbershop
n02791124 barber chair
n02965783 car mirror
n04111531 rotisserie
n04509417 unicycle, monocycle
n02790996 barbell
n04389033 tank, army tank, armored combat vehicle, armoured combat vehicle
n04162706 seat belt, seatbelt
n03124170 cowboy hat, ten-gallon hat
n02860847 bobsled, bobsleigh, bob
n03089624 confectionery, confectionary, candy store
n03791053 motor scooter, scooter
n04355933 sunglass
n03630383 lab coat, laboratory coat
n03633091 ladle
n02807133 bathing cap, swimming cap
n03443371 goblet
n03259280 Dutch oven
n07579787 plate
n02892767 brassiere, bra, bandeau
