n03670208 limousine, limo
n04286575 spotlight, spot
n04296562 stage
n03535780 horizontal bar, high bar
n03888605 parallel bars, bars
n04009552 projector
n03127747 crash helmet
n04200800 shoe shop, shoe-shop, shoe store
n04485082 tripod
n03196217 digital clock
n03691459 loudspeaker, speaker, speaker unit, loudspeaker system, speaker system
n03255030 dumbbell
n03792782 mountain bike, all-terrain bike, off-roader
n04442312 toaster
n03976657 pole
n02777292 balance beam, beam
n04509417 unicycle, monocycle
n03379051 football helmet
n02802426 basketball
n03782006 monitor
n09229709 bubble
n03791053 motor scooter, scooter
n04540053 volleyball
n03032252 cinema, movie theater, movie theatre, movie house, picture palace
n04505470 typewriter keyboard
n03785016 moped
n02790996 barbell
n03623198 knee pad
